…
    ## [1] 0.289051

### use modelr for Cross Validation

``` r
cv_df = 
  nonlin_df |>
  crossv_mc(n = 100)
```

``` r
cv_df |> pull (train) |> nth(1) |> as.tibble()
```

    ## # A tibble: 79 × 3
    ##       id      x       y
    ##    <int>  <dbl>   <dbl>
    ##  1     1 0.266   1.11  
    ##  2     2 0.372   0.764 
    ##  3     3 0.573   0.358 
    ##  4     4 0.908  -3.04  
    ##  5     6 0.898  -1.99  
    ##  6     7 0.945  -3.27  
    ##  7     9 0.629   0.0878
    ##  8    10 0.0618  0.392 
    ##  9    12 0.177   0.836 
    ## 10    13 0.687  -0.291 
    ## # ℹ 69 more rows
…
